Basic workflow with talkr • talkr
…
This plot can be overlayed with plotted occurrences of tokens.

To do so, we first need to calculate the token frequencies:

tokens <- tokenize(data)

tokens
#> # A tibble: 70,074 × 9
#>    source     uid   participant nwords token order relative_time frequency  rank
#>    <chr>      <chr> <chr>        <int> <chr> <chr>         <dbl>     <dbl> <int>
#>  1 /dutch2/D… dutc… spreker1 […      1 [lau… only            840  0.0114      17
#>  2 /dutch2/D… dutc… spreker1 […      7 oké   first          1826  0.00221     77
#>  3 /dutch2/D… dutc… spreker1 […      7 nou   midd…          2115  0.00955     21
#>  4 /dutch2/D… dutc… spreker1 […      7 ik    midd…          2404  0.0288       3
#>  5 /dutch2/D… dutc… spreker1 […      7 ga    midd…          2693  0.00171     90
#>  6 /dutch2/D… dutc… spreker1 […      7 je    midd…          2982  0.0191       6
#>  7 /dutch2/D… dutc… spreker1 […      7 even  midd…          3271  0.00133    107
#>  8 /dutch2/D… dutc… spreker1 […      7 vert… last           3560  0.000171   468
#>  9 /dutch2/D… dutc… spreker1 […      3 van   first          3885  0.0117      16
#> 10 /dutch2/D… dutc… spreker1 […      3 gist… midd…          4246  0.000342   272
#> # ℹ 70,064 more rows

Token frequencies are calculated over the entire dataset. For
source-specific data, it is recommended to filter the source prior to
tokenization:

tokens <- data |>
  dplyr::filter(source == "/dutch2/DVA9M") |>
  tokenize()

tokens
#> # A tibble: 3,971 × 9
#>    source     uid   participant nwords token order relative_time frequency  rank
#>    <chr>      <chr> <chr>        <int> <chr> <chr>         <dbl>     <dbl> <int>
#>  1 /dutch2/D… dutc… spreker1 […     10 ja    first           327  0.0458       1
#>  2 /dutch2/D… dutc… spreker1 […     10 dat   midd…           526  0.0242       5
#>  3 /dutch2/D… dutc… spreker1 […     10 is    midd…           726  0.0144      14
#>  4 /dutch2/D… dutc… spreker1 […     10 lang  midd…           926  0.000252   518
#>  5 /dutch2/D… dutc… spreker1 […     10 gele… midd…          1125  0.000252   440
#>  6 /dutch2/D… dutc… spreker1 […     10 dat   midd…          1325  0.0242       5
#>  7 /dutch2/D… dutc… spreker1 […     10 we    midd…          1524  0.00630     36
#>  8 /dutch2/D… dutc… spreker1 […     10 elka… midd…          1724  0.000755   174
#>  9 /dutch2/D… dutc… spreker1 […     10 hebb… midd…          1924  0.00252     73
#> 10 /dutch2/D… dutc… spreker1 […     10 gezi… last           2123  0.000504   258
#> # ℹ 3,961 more rows
…
